Introduction to npi
…
Visit the function’s help page via ?npi_search after
installing and loading the package for more details.

Increasing number of records returned

The limit argument of npi_search() lets you
set the maximum records to return from 1 to 1200 inclusive, defaulting
to 10 records if no value is specified.

nyc_25 <- npi_search(city = "New York City", limit = 25)
#> 25 records requested
#> Requesting records 0-25...
nyc_25
#> # A tibble: 25 × 11
#>    npi    enume…¹ basic    other_…² identi…³ taxono…⁴ addres…⁵ practi…⁶ endpoi…⁷
#>  * <chr>  <chr>   <list>   <list>   <list>   <list>   <list>   <list>   <list>  
#>  1 13262… Indivi… <tibble> <tibble> <tibble> <tibble> <tibble> <tibble> <tibble>
#>  2 13564… Indivi… <tibble> <tibble> <tibble> <tibble> <tibble> <tibble> <tibble>
#>  3 14972… Indivi… <tibble> <tibble> <tibble> <tibble> <tibble> <tibble> <tibble>
#>  4 19728… Organi… <tibble> <tibble> <tibble> <tibble> <tibble> <tibble> <tibble>
#>  5 14079… Indivi… <tibble> <tibble> <tibble> <tibble> <tibble> <tibble> <tibble>
#>  6 13665… Indivi… <tibble> <tibble> <tibble> <tibble> <tibble> <tibble> <tibble>
#>  7 18516… Indivi… <tibble> <tibble> <tibble> <tibble> <tibble> <tibble> <tibble>
#>  8 16594… Indivi… <tibble> <tibble> <tibble> <tibble> <tibble> <tibble> <tibble>
#>  9 16695… Indivi… <tibble> <tibble> <tibble> <tibble> <tibble> <tibble> <tibble>
#> 10 10938… Indivi… <tibble> <tibble> <tibble> <tibble> <tibble> <tibble> <tibble>
#> # … with 15 more rows, 2 more variables: created_date <dttm>,
#> #   last_updated_date <dttm>, and abbreviated variable names ¹​enumeration_type,
#> #   ²​other_names, ³​identifiers, ⁴​taxonomies, ⁵​addresses, ⁶​practice_locations,
#> #   ⁷​endpoints
…
nyc_300 <- npi_search(city = "New York City", limit = 300)
#> 300 records requested
#> Requesting records 0-200...
#> Requesting records 200-300...
nyc_300
#> # A tibble: 300 × 11
#>    npi    enume…¹ basic    other_…² identi…³ taxono…⁴ addres…⁵ practi…⁶ endpoi…⁷
#>  * <chr>  <chr>   <list>   <list>   <list>   <list>   <list>   <list>   <list>  
#>  1 13262… Indivi… <tibble> <tibble> <tibble> <tibble> <tibble> <tibble> <tibble>
#>  2 13564… Indivi… <tibble> <tibble> <tibble> <tibble> <tibble> <tibble> <tibble>
#>  3 14972… Indivi… <tibble> <tibble> <tibble> <tibble> <tibble> <tibble> <tibble>
#>  4 19728… Organi… <tibble> <tibble> <tibble> <tibble> <tibble> <tibble> <tibble>
#>  5 14079… Indivi… <tibble> <tibble> <tibble> <tibble> <tibble> <tibble> <tibble>
#>  6 13665… Indivi… <tibble> <tibble> <tibble> <tibble> <tibble> <tibble> <tibble>
#>  7 18516… Indivi… <tibble> <tibble> <tibble> <tibble> <tibble> <tibble> <tibble>
#>  8 16594… Indivi… <tibble> <tibble> <tibble> <tibble> <tibble> <tibble> <tibble>
#>  9 16695… Indivi… <tibble> <tibble> <tibble> <tibble> <tibble> <tibble> <tibble>
#> 10 10938… Indivi… <tibble> <tibble> <tibble> <tibble> <tibble> <tibble> <tibble>
#> # … with 290 more rows, 2 more variables: created_date <dttm>,
#> #   last_updated_date <dttm>, and abbreviated variable names ¹​enumeration_type,
#> #   ²​other_names, ³​identifiers, ⁴​taxonomies, ⁵​addresses, ⁶​practice_locations,
#> #   ⁷​endpoints
…
Additionally, users can flatten all the list columns using
npi_flatten().

npi_flatten(nyc)
#> # A tibble: 30 × 48
#>    npi   basic…¹ basic…² basic…³ basic…⁴ basic…⁵ basic…⁶ basic…⁷ basic…⁸ basic…⁹
#>    <chr> <chr>   <chr>   <chr>   <chr>   <chr>   <chr>   <chr>   <chr>   <chr>  
#>  1 1093… BENJAM… SADOCK  JAMES   MD      NO      M       2007-0… 2007-0… A      
#>  2 1093… BENJAM… SADOCK  JAMES   MD      NO      M       2007-0… 2007-0… A      
#>  3 1326… BENJAM… BOWLING DOUGLAS M.D.    NO      M       2008-0… 2014-0… A      
#>  4 1326… BENJAM… BOWLING DOUGLAS M.D.    NO      M       2008-0… 2014-0… A      
#>  5 1356… MICHAEL SCHMIDT THOMAS  MSW LC… NO      M       2007-0… 2007-0… A      
#>  6 1356… MICHAEL SCHMIDT THOMAS  MSW LC… NO      M       2007-0… 2007-0… A      
#>  7 1366… ANNE    GRIFFIN MCLEAN  MD      NO      F       2007-0… 2007-0… A      
#>  8 1366… ANNE    GRIFFIN MCLEAN  MD      NO      F       2007-0… 2007-0… A      
#>  9 1407… MELINDA SCHROE… LUCY    LCSW    NO      F       2007-0… 2007-0… A      
#> 10 1407… MELINDA SCHROE… LUCY    LCSW    NO      F       2007-0… 2007-0… A      
#> # … with 20 more rows, 38 more variables: basic_name_prefix <chr>,
#> #   basic_name_suffix <chr>, basic_organization_name <chr>,
#> #   basic_organizational_subpart <chr>,
#> #   basic_authorized_official_first_name <chr>,
#> #   basic_authorized_official_last_name <chr>,
#> #   basic_authorized_official_middle_name <chr>,
#> #   basic_authorized_official_telephone_number <chr>, …
…
